simulation-plots
…
simulation-plots

Leonardo Feitosa

2023-03-01

## # A tibble: 1,302 x 19
##    scenario_id   p_s   p_w   r_s   r_w   q_s   q_w   k_s   k_w     c variables
##          <dbl> <dbl> <dbl> <dbl> <dbl> <dbl> <dbl> <dbl> <dbl> <dbl> <chr>    
##  1          53   0.5     0   0.2  0.1   0.05  0.05     4     2  0.05 N_w      
##  2         252   0.3     0   0.6  0.1   0.05  0.05     4     2  0.05 N_w      
##  3         553   0.5     0   0.2  0.11  0.05  0.05     4     2  0.05 N_w      
##  4         752   0.3     0   0.6  0.11  0.05  0.05     4     2  0.05 N_w      
##  5        1302   0.3     0   0.7  0.12  0.05  0.05     4     2  0.05 N_w      
##  6        1554   0.7     0   0.2  0.13  0.05  0.05     4     2  0.05 N_w      
##  7        2054   0.7     0   0.2  0.14  0.05  0.05     4     2  0.05 N_w      
##  8        2352   0.3     0   0.8  0.14  0.05  0.05     4     2  0.05 N_w      
##  9        2555   0.9     0   0.2  0.15  0.05  0.05     4     2  0.05 N_w      
## 10        2603   0.5     0   0.3  0.15  0.05  0.05     4     2  0.05 N_w      
## # ... with 1,292 more rows, and 8 more variables: values <dbl>, b_stocks <chr>,
## #   b_v_k <dbl>, vuln_ratio_w <dbl>, vuln_ratio_s <dbl>, st_stock_rev <dbl>,
## #   w_stock_rev <dbl>, mean_ps <dbl>
…
